//.two_up_product {
//
//	div {
//		a {
//			width: 124px!important;
//			font-size: 13px!important;
//		}
//	}
//
//	h4 {
//		font-size: 18px;
//
//		@media screen and (max-width: 596px) {
//			font-size: 21px!important;
//		}
//
//		@media screen and (max-width: 320px) {
//			font-size: 15px;
//		}
//	}
//
//	@media screen and (max-width: 596px) {
//		p {
//			font-size: 14px!important;
//		}
//	}
//
//	@media screen and (max-width: 320px) {
//
//		p {
//			font-size: 12px!important;
//
//		}
//	}
//}

//.two_up_product_quote {
//
//	span.quoteLeft {
//		line-height: 0!important;
//		font-size: 50px;
//	    vertical-align: text-bottom;
//		padding-right: 5px;
//		mso-line-height-rule: exactly!important;
//
//		@media screen and (max-width: 596px) {
//			font-size: 40px!important;
//		}
//
//		@media screen and (max-width: 375px) {
//			font-size: 35px!important;
//		}
//
//		@media screen and (max-width: 320px) {
//			font-size: 25px!important;
//		}
//	}
//
//
//	span.quoteRight {
//		line-height: 0!important;
//		font-size: 50px;
//		vertical-align: bottom!important;
//		padding-left: 5px;
//		mso-line-height-rule: exactly!important;
//
//		@media screen and (max-width: 596px) {
//			font-size: 40px!important;
//		}
//
//		@media screen and (max-width: 375px) {
//			font-size: 35px!important;
//		}
//
//		@media screen and (max-width: 320px) {
//			font-size: 25px!important;
//		}
//	}
//
//
//	p {
//		font-size: 18px;
//	}
//
//	@media screen and (max-width: 596px) {
//		p {
//			font-size: 16px!important;
//
//			strong {
//				font-size: 16px!important;
//			}
//		}
//	}
//
//	@media screen and (max-width: 375px) {
//		p {
//			font-size: 14px!important;
//
//			strong {
//				font-size: 14px!important;
//			}
//		}
//	}
//
//	@media screen and (max-width: 320px) {
//
//		p {
//			font-size: 14px!important;
//
//			strong {
//				font-size: 14px!important;
//			}
//		}
//	}
//}


//table.sub-content{
//	width:95%;
//	.columns{vertical-align:middle;
//
//		@media screen and (max-width: 596px) {
//			height:auto!important;
//		}
//	}
//	@media screen and (max-width: 596px) {
//		width: 100% !important;
//
//		&.right-align {
//			th.first {
//				margin-right: 0 !important;
//			}
//		}
//	}
//
//	@media screen and (max-width: 492px) {
//		width: 92% !important;
//	}
//
//	@media screen and (max-width: 425px) {
//		width: 100% !important;
//
//		.columns {
//			padding-left: 0px!important;
//			padding-right: 16px!important;
//		}
//
//		&.right-align {
//			.columns {
//				padding-left: 16px!important;
//				padding-right: 0px!important;
//			}
//		}
//	}
//
//	margin:0 auto;
//
//	.headline {
//		margin-bottom:5px;
//
//		@media screen and (max-width: 425px) {
//			strong {
//				font-size: 21px;
//			}
//		}
//
//		@media screen and (max-width: 375px) {
//			strong {
//				font-size: 22px;
//			}
//		}
//
//		@media screen and (max-width: 320px) {
//			strong {
//				font-size: 20px;
//			}
//		}
//
//	}
//
//	.subhead{
//		font-size: 16px!important;
//
//		@media screen and (max-width: 375px) {
//			font-size: 18px !important;
//		}
//
//		margin-bottom:15px;
//	}
//
//	&.right-align{
//		th{
//			padding-left:0;
//			padding-right:0;
//		}
//
//		th.last {
//			    padding-left: 47px;
//		}
//
//		th.first{
//			    padding-right: 32px;
//		}
//	}
//
//	@media screen and (max-width: 399px) {
//		th.last {
//			    padding-left: 0px!important;
//				padding-right: 0px!important;
//		}
//
//		th.first{
//			padding-left: 0px!important;
//			padding-right: 0px!important;
//		}
//	}
//}

	<!-- <row class=" collapse footerHR">
		<columns small="1"></columns>


		<columns small="10">
			<hr noshade class="yellowHR">

			<spacer size="25"></spacer>

			<p class="text-center legal" style="color: #a48a3e;">
				NO PURCHASE NECESSARY. Legal residents of the 50 United States (D.C.) 18 years and older. Ends 12/31/16.  To enter and for Official Rules, including odds, how to enter without purchase, and prize description, visit <a href="http://www.burtsbees.com/content/burt%27s-box-sweepstakes/Burts-Box-Review-Page.html?cm_mmc=Email-_-10.31.16.Review_Burts_Innovation_Box-_-footer-_-legalsweeps" style="text-decoration: none!important; color: #a48a3e!important;">www.burtsbees.com/burtsboxsweeps</a>. Void where prohibited.
			</p>
		</columns>
		<columns small="1"></columns>
	</row> -->
